filename,x,y,feature
bframe0013.jpg,615,283,X
bframe0014.jpg,477,75,T
bframe0036.jpg,284,142,T
bframe0050.jpg,126,27,T
bframe0051.jpg,150,45,T
bframe0052.jpg,148,70,T
bframe0053.jpg,81,95,T
bframe0054.jpg,134,124,T
bframe0055.jpg,47,202,T
bframe0059.jpg,136,219,T
bframe0060.jpg,297,195,T
bframe0061.jpg,None,None
bframe0062.jpg,369,62,T
bframe0063.jpg,410,315,T
bframe0067.jpg,571,41,L
bframe0068.jpg,380,200,T
bframe0069.jpg,380,220,T
bframe0070.jpg,433,303,T
bframe0071.jpg,402,404,T
bframe0089.jpg,237,104,L
bframe0089.jpg,487,127,L
bframe0089.jpg,536,112,T
bframe0089.jpg,174,92,L
bframe0103.jpg,603,25,L
bframe0104.jpg,487,57,L
bframe0105.jpg,236,30,L
bframe0106.jpg,409,10,L
bframe0107.jpg,487,200,L
bframe0108.jpg,542,217,L
bframe0113.jpg,544,199,L
bframe0114.jpg,44,235,L
bframe0117.jpg,514,53,L
bframe0118.jpg,250,49,T
bframe0119.jpg,254,44,T
bframe0120.jpg,242,76,T
bframe0121.jpg,374,112,T
bframe0121.jpg,38,136,L
bframe0122.jpg,303,152,T
bframe0125.jpg,312,238,L
bframe0126.jpg,286,149,T
bframe0127.jpg,314,155,T
bframe0128.jpg,397,177,T
bframe0129.jpg,340,162,L
bframe0130.jpg,132,28,L
bframe0130.jpg,599,10,L
bframe0131.jpg,459,198,L
bframe0132.jpg,200,269,L
bframe0136.jpg,None,None
bframe0137.jpg,None,None
bframe0138.jpg,None,None
bframe0142.jpg,480,83,L
bframe0142.jpg,605,4,L
bframe0143.jpg,388,60,T
bframe0145.jpg,375,295,L
bframe0145.jpg,467,225,L
bframe0145.jpg,544,297,T
bframe0146.jpg,None,None
bframe0147.jpg,None,None
bframe0148.jpg,None,None
bframe0149.jpg,None,None
bframe0150.jpg,None,None
bframe0151.jpg,444,17,T
bframe0152.jpg,532,56,L
bframe0158.jpg,322,192,L
bframe0158.jpg,605,97,T
bframe0159.jpg,301,190,L
bframe0159.jpg,587,99,T
bframe0160.jpg,305,106,L
bframe0162.jpg,None,None
bframe0163.jpg,266,201,L
bframe0163.jpg,532,101,T
bframe0164.jpg,324,220,L
bframe0164.jpg,637,122,L
bframe0165.jpg,302,264,L
bframe0165.jpg,629,139,L
bframe0166.jpg,351,386,L
bframe0167.jpg,None,None
bframe0172.jpg,None,None
bframe0173.jpg,None,None
bframe0174.jpg,272,23,L
bframe0175.jpg,285,17,L
bframe0176.jpg,277,41,L
bframe0179.jpg,261,65,L
bframe0180.jpg,252,60,L
bframe0181.jpg,289,73,L
bframe0217.jpg,245,17,T
bframe0218.jpg,265,42,T
bframe0219.jpg,380,75,T
bframe0220.jpg,411,118,T
bframe0221.jpg,410,162,T
bframe0222.jpg,448,213,T
bframe0223.jpg,448,274,T
bframe0224.jpg,429,360,T
bframe0225.jpg,440,417,T
bframe0226.jpg,182,216,T
bframe0228.jpg,402,180,T
bframe0229.jpg,434,421,T
bframe0230.jpg,435,427,T
bframe0231.jpg,457,411,T
bframe0232.jpg,451,465,L
bframe0290.jpg,96,25,L
bframe0341.jpg,544,244,T
bframe0342.jpg,22,74,L
bframe0343.jpg,507,47,L
bframe0344.jpg,49,108,L
bframe0344.jpg,300,152,T
bframe0344.jpg,198,184,L
bframe0345.jpg,625,48,L
bframe0346.jpg,617,58,L
bframe0347.jpg,633,82,L
bframe0348.jpg,575,14,T
bframe0349.jpg,None,None
bframe0350.jpg,None,None
bframe0351.jpg,None,None
bframe0352.jpg,None,None
bframe0353.jpg,None,None
bframe0355.jpg,None,None
tframe0009.jpg,288,95,L
tframe0010.jpg,171,301,T
tframe0024.jpg,389,327,T
tframe0025.jpg,216,325,T
tframe0026.jpg,218,325,T
tframe0027.jpg,265,325,T
tframe0028.jpg,248,325,T
tframe0029.jpg,206,317,T
tframe0030.jpg,235,335,T
tframe0031.jpg,245,330,T
tframe0032.jpg,254,334,T
tframe0033.jpg,216,324,T
tframe0034.jpg,419,169,T
tframe0035.jpg,314,347,T
tframe0037.jpg,311,276,T
tframe0038.jpg,232,340,T
tframe0039.jpg,242,332,T
tframe0040.jpg,264,350,T
tframe0041.jpg,234,354,T
tframe0042.jpg,277,350,T
tframe0043.jpg,218,362,T
tframe0044.jpg,176,373,T
tframe0045.jpg,200,386,T
tframe0046.jpg,221,390,T
tframe0047.jpg,173,391,T
tframe0048.jpg,168,413,T
tframe0049.jpg,150,416,T
tframe0050.jpg,None,None,None
tframe0051.jpg,None,None,None
tframe0061.jpg,334,360,T
tframe0062.jpg,369,411,T
tframe0065.jpg,561,185,L
tframe0066.jpg,562,317,L
tframe0067.jpg,None,None,None
tframe0080.jpg,193,40,L
tframe0080.jpg,223,32,T
tframe0080.jpg,473,47,L
tframe0083.jpg,345,217,L
tframe0083.jpg,55,225,L
tframe0083.jpg,88,214,T
tframe0084.jpg,45,301,L
tframe0084.jpg,284,304,L
tframe0084.jpg,580,293,L
tframe0084.jpg,92,293,T
tframe0084.jpg,308,292,T
tframe0085.jpg,49,287,L
tframe0085.jpg,288,305,L
tframe0085.jpg,603,314,L
tframe0085.jpg,89,279,T
tframe0085.jpg,315,296,T
tframe0086.jpg,566,308,L
tframe0086.jpg,249,297,L
tframe0086.jpg,272,288,T
tframe0086.jpg,32,270,T
tframe0087.jpg,87,230,L
tframe0088.jpg,378,214,L
tframe0088.jpg,27,223,L
tframe0088.jpg,71,206,T
tframe0090.jpg,207,342,L
tframe0090.jpg,458,372,L
tframe0090.jpg,251,334,T
tframe0090.jpg,497,362,T
tframe0091.jpg,265,366,L
tframe0092.jpg,53,324,T
tframe0092.jpg,414,328,L
tframe0093.jpg,33,316,T
tframe0093.jpg,414,321,L
tframe0094.jpg,60,337,T
tframe0094.jpg,459,337,L
tframe0095.jpg,447,330,L
tframe0096.jpg,325,344,L
tframe0097.jpg,365,296,L
tframe0098.jpg,110,261,L
tframe0098.jpg,213,236,T
tframe0099.jpg,452,385,L
tframe0100.jpg,487,380,L
tframe0101.jpg,None,None,None
tframe0102.jpg,None,None,None
tframe0103.jpg,None,None,None
tframe0105.jpg,None,None,None
tframe0106.jpg,None,None,None
tframe0115.jpg,525,294,T
tframe0116.jpg,125,287,T
tframe0117.jpg,533,465,L
tframe0118.jpg,96,319,L
tframe0118.jpg,188,283,L
tframe0119.jpg,105,313,L
tframe0119.jpg,196,281,L
tframe0120.jpg,92,310,L
tframe0120.jpg,186,274,L
tframe0121.jpg,197,326,L
tframe0121.jpg,285,290,L
tframe0122.jpg,96,333,L
tframe0122.jpg,200,292,L
tframe0123.jpg,122,99,L
tframe0123.jpg,15,141,L
tframe0123.jpg,265,365,T
tframe0123.jpg,142,138,T
tframe0124.jpg,42,65,L
tframe0124.jpg,70,105,T
tframe0124.jpg,219,339,T
tframe0125.jpg,507,416,L
tframe0126.jpg,29,336,L
tframe0127.jpg,53,336,L
tframe0128.jpg,156,315,L
tframe0129.jpg,522,330,L
tframe0129.jpg,627,295,L
tframe0130.jpg,206,454,L
tframe0130.jpg,341,148,L
tframe0130.jpg,431,111,L
tframe0130.jpg,456,151,T
tframe0131.jpg,601,168,L
tframe0132.jpg,254,216,L
tframe0132.jpg,334,168,L
tframe0133.jpg,631,355,L
tframe0134.jpg,602,374,L
tframe0135.jpg,576,366,L
tframe0136.jpg,360,350,L
tframe0136.jpg,437,291,L
tframe0136.jpg,504,350,T
tframe0137.jpg,252,356,L
tframe0137.jpg,389,350,T
tframe0137.jpg,332,294,L
tframe0138.jpg,296,350,L
tframe0138.jpg,440,348,T
tframe0138.jpg,380,286,L
tframe0140.jpg,545,115,L
tframe0141.jpg,416,197,L
tframe0141.jpg,593,199,T
tframe0141.jpg,514,121,L
tframe0142.jpg,593,405,L
tframe0146.jpg,331,381,L
tframe0146.jpg,422,302,L
tframe0146.jpg,501,381,T
tframe0147.jpg,331,381,L
tframe0147.jpg,422,302,L
tframe0147.jpg,501,381,T
tframe0148.jpg,317,372,L
tframe0148.jpg,415,302,L
tframe0148.jpg,485,384,T
tframe0149.jpg,405,386,L
tframe0149.jpg,500,300,L
tframe0149.jpg,600,390,T
tframe0150.jpg,333,409,L
tframe0150.jpg,530,409,T
tframe0150.jpg,426,308,L
tframe0151.jpg,445,430,L
tframe0151.jpg,549,318,L
tframe0152.jpg,545,466,L
tframe0153.jpg,190,272,T
tframe0154.jpg,29,336,T
tframe0155.jpg,85,284,T
tframe0158.jpg,263,332,L
tframe0159.jpg,234,310,L
tframe0160.jpg,233,314,L
tframe0162.jpg,161,372,T
tframe0163.jpg,188,338,L
tframe0164.jpg,262,345,L
tframe0165.jpg,240,349,L
tframe0166.jpg,314,341,L
tframe0167.jpg,336,366,L
tframe0168.jpg,346,362,L
tframe0169.jpg,312,360,L
tframe0170.jpg,301,365,L
tframe0171.jpg,302,378,L
tframe0172.jpg,300,403,L
tframe0173.jpg,252,408,L
tframe0174.jpg,271,425,L
tframe0175.jpg,283,436,L
tframe0176.jpg,286,455,L
tframe0177.jpg,79,313,L
tframe0178.jpg,51,454,T
tframe0188.jpg,371,295,T
tframe0189.jpg,360,300,T
tframe0190.jpg,303,300,T
tframe0191.jpg,348,255,T
tframe0192.jpg,568,206,T
tframe0193.jpg,490,132,T
tframe0194.jpg,441,441,T
tframe0195.jpg,166,307,T
tframe0196.jpg,128,329,T
tframe0198.jpg,106,330,T
tframe0202.jpg,45,355,T
tframe0203.jpg,499,345,T
tframe0209.jpg,200,346,T
tframe0210.jpg,207,348,T
tframe0211.jpg,194,354,T
tframe0212.jpg,220,360,T
tframe0213.jpg,313,352,T
tframe0214.jpg,264,382,T
tframe0215.jpg,187,392,T
tframe0216.jpg,142,405,T
tframe0217.jpg,263,430,T
tframe0218.jpg,224,268,L
tframe0218.jpg,260,452,T
tframe0232.jpg,319,282,L
tframe0233.jpg,304,278,L
tframe0248.jpg,362,331,X
tframe0248.jpg,359,437,X
tframe0249.jpg,314,326,X
tframe0249.jpg,314,447,X
tframe0250.jpg,301,321,X
tframe0250.jpg,312,459,X
tframe0251.jpg,289,285,T
tframe0251.jpg,292,335,X
tframe0252.jpg,218,313,X
tframe0253.jpg,417,112,T
tframe0253.jpg,427,170,X
tframe0253.jpg,453,375,X
tframe0254.jpg,236,48,T
tframe0254.jpg,250,113,X
tframe0254.jpg,300,346,X
tframe0255.jpg,184,298,T
tframe0255.jpg,202,367,X
tframe0256.jpg,153,305,T
tframe0256.jpg,168,382,X
tframe0257.jpg,174,288,T
tframe0257.jpg,187,370,X
tframe0258.jpg,184,312,T
tframe0258.jpg,186,401,X
tframe0260.jpg,116,67,L
tframe0260.jpg,279,79,L
tframe0260.jpg,593,86,L
tframe0260.jpg,590,76,T
tframe0261.jpg,131,75,T
tframe0261.jpg,127,184,L
tframe0261.jpg,416,175,L
tframe0262.jpg,611,246,X
tframe0262.jpg,121,82,L
tframe0263.jpg,555,251,T
tframe0263.jpg,529,374,X
tframe0264.jpg,329,431,T
tframe0265.jpg,166,310,T
tframe0265.jpg,131,434,X
tframe0266.jpg,130,311,T
tframe0266.jpg,102,453,X
tframe0267.jpg,179,318,T
tframe0268.jpg,157,317,T
tframe0269.jpg,112,320,T
tframe0270.jpg,81,358,T
tframe0271.jpg,31,302,T
tframe0274.jpg,473,281,L
tframe0276.jpg,168,325,T
tframe0277.jpg,418,322,T
tframe0278.jpg,431,328,T
tframe0279.jpg,392,325,T
tframe0280.jpg,401,326,T
tframe0281.jpg,479,324,T
tframe0282.jpg,511,329,T
tframe0283.jpg,499,341,T
tframe0284.jpg,417,354,T
tframe0285.jpg,354,350,T
tframe0286.jpg,310,124,T
tframe0288.jpg,429,159,L
tframe0289.jpg,90,425,L
tframe0289.jpg,321,438,L
tframe0289.jpg,619,430,T
tframe0290.jpg,88,426,L
tframe0290.jpg,322,437,L
tframe0290.jpg,620,429,T
tframe0291.jpg,102,436,L
tframe0291.jpg,410,436,L
tframe0291.jpg,407,427,T
tframe0292.jpg,113,228,L
tframe0292.jpg,139,221,T
tframe0292.jpg,401,222,T
tframe0292.jpg,406,232,L
tframe0293.jpg,102,436,L
tframe0293.jpg,408,439,L
tframe0293.jpg,403,427,T
tframe0294.jpg,360,354,T
tframe0295.jpg,358,353,T
tframe0296.jpg,376,352,T
tframe0297.jpg,417,348,T
tframe0298.jpg,412,368,T
tframe0299.jpg,397,366,T
tframe0300.jpg,25,405,T
tframe0301.jpg,329,279,L
tframe0301.jpg,560,290,L
tframe0301.jpg,562,281,T
tframe0304.jpg,268,292,L
tframe0305.jpg,285,293,L
tframe0306.jpg,264,279,L
tframe0307.jpg,224,292,L
tframe0308.jpg,212,293,L
tframe0309.jpg,237,305,L
tframe0309.jpg,395,288,L
tframe0310.jpg,166,311,L
tframe0310.jpg,133,303,T
tframe0310.jpg,322,295,L
tframe0311.jpg,129,308,L
tframe0311.jpg,95,302,T
tframe0311.jpg,294,270,L
tframe0312.jpg,125,320,L
tframe0312.jpg,91,311,T
tframe0312.jpg,302,281,L
tframe0313.jpg,323,284,L
tframe0313.jpg,140,311,L
tframe0313.jpg,110,300,T
tframe0314.jpg,134,309,T
tframe0314.jpg,164,318,L
tframe0314.jpg,350,285,L
tframe0315.jpg,349,289,L
tframe0315.jpg,121,315,T
tframe0315.jpg,152,324,L
tframe0316.jpg,154,303,T
tframe0316.jpg,178,316,L
tframe0316.jpg,382,292,L
tframe0317.jpg,145,296,T
tframe0317.jpg,169,311,L
tframe0317.jpg,382,291,L
tframe0318.jpg,121,309,T
tframe0318.jpg,147,324,L
tframe0318.jpg,371,293,L
tframe0319.jpg,376,281,L
tframe0319.jpg,115,298,T
tframe0319.jpg,143,315,L
tframe0320.jpg,106,312,T
tframe0320.jpg,132,328,L
tframe0320.jpg,370,290,L
tframe0321.jpg,185,318,T
tframe0321.jpg,207,334,L
tframe0321.jpg,451,297,L
tframe0322.jpg,200,300,T
tframe0322.jpg,222,319,L
tframe0322.jpg,474,304,L
tframe0323.jpg,29,342,T
tframe0323.jpg,416,308,T
tframe0323.jpg,441,323,L
tframe0324.jpg,176,328,L
tframe0324.jpg,217,313,T
tframe0324.jpg,607,326,T
tframe0325.jpg,239,309,T
tframe0325.jpg,198,324,L
tframe0326.jpg,190,324,L
tframe0326.jpg,232,308,T
tframe0326.jpg,626,329,T
tframe0327.jpg,156,322,L
tframe0327.jpg,201,306,T
tframe0327.jpg,587,320,T
tframe0327.jpg,620,342,L
tframe0328.jpg,155,327,L
tframe0328.jpg,201,311,T
tframe0328.jpg,609,320,T
tframe0329.jpg,205,318,T
tframe0329.jpg,155,335,L
tframe0330.jpg,155,346,L
tframe0330.jpg,203,327,T
tframe0331.jpg,163,347,L
tframe0331.jpg,221,328,T
tframe0332.jpg,255,324,T
tframe0332.jpg,198,346,L
tframe0333.jpg,236,318,T
tframe0333.jpg,177,345,L
tframe0334.jpg,87,318,T
tframe0334.jpg,610,356,T
tframe0334.jpg,14,349,L
tframe0335.jpg,560,349,T
tframe0335.jpg,632,395,L
tframe0336.jpg,389,343,T
tframe0336.jpg,567,387,L
tframe0337.jpg,487,355,T
tframe0337.jpg,571,409,L
tframe0338.jpg,350,261,T
tframe0338.jpg,432,307,L
tframe0339.jpg,45,200,T
tframe0340.jpg,233,182,L
tframe0340.jpg,462,240,T
tframe0340.jpg,354,264,L
tframe0343.jpg,515,448,L
tframe0345.jpg,509,389,T
tframe0345.jpg,630,461,L
tframe0346.jpg,469,391,T
tframe0346.jpg,582,469,L
tframe0347.jpg,528,401,T
tframe0348.jpg,574,418,T
tframe0355.jpg,389,273,T
tframe0355.jpg,620,110,L
tframe0001.jpg,None,None,None
tframe0002.jpg,None,None,None
tframe0003.jpg,None,None,None
tframe0004.jpg,None,None,None
tframe0005.jpg,None,None,None
tframe0006.jpg,None,None,None
tframe0007.jpg,None,None,None
tframe0008.jpg,None,None,None
tframe0011.jpg,None,None,None
tframe0012.jpg,None,None,None
tframe0013.jpg,None,None,None
tframe0014.jpg,None,None,None
tframe0015.jpg,None,None,None
tframe0016.jpg,None,None,None
tframe0017.jpg,None,None,None
tframe0018.jpg,None,None,None
tframe0019.jpg,None,None,None
tframe0020.jpg,None,None,None
tframe0021.jpg,None,None,None
tframe0022.jpg,None,None,None
tframe0023.jpg,None,None,None
tframe0036.jpg,None,None,None
tframe0052.jpg,None,None,None
tframe0053.jpg,None,None,None
tframe0054.jpg,None,None,None
tframe0055.jpg,None,None,None
tframe0056.jpg,None,None,None
tframe0057.jpg,None,None,None
tframe0058.jpg,None,None,None
tframe0059.jpg,None,None,None
tframe0060.jpg,None,None,None
tframe0063.jpg,None,None,None
tframe0064.jpg,None,None,None
tframe0068.jpg,None,None,None
tframe0069.jpg,None,None,None
tframe0070.jpg,None,None,None
tframe0071.jpg,None,None,None
tframe0072.jpg,None,None,None
tframe0073.jpg,None,None,None
tframe0074.jpg,None,None,None
tframe0075.jpg,None,None,None
tframe0076.jpg,None,None,None
tframe0077.jpg,None,None,None
tframe0078.jpg,None,None,None
tframe0079.jpg,None,None,None
tframe0081.jpg,547,152,L
tframe0082.jpg,None,None,None
tframe0089.jpg,None,None,None
tframe0104.jpg,None,None,None
tframe0107.jpg,None,None,None
tframe0108.jpg,None,None,None
tframe0109.jpg,None,None,None
tframe0110.jpg,None,None,None
tframe0111.jpg,None,None,None
tframe0112.jpg,None,None,None
tframe0113.jpg,None,None,None
tframe0114.jpg,None,None,None
tframe0139.jpg,None,None,None
tframe0143.jpg,None,None,None
tframe0144.jpg,None,None,None
tframe0145.jpg,None,None,None
tframe0156.jpg,None,None,None
tframe0157.jpg,None,None,None
tframe0161.jpg,None,None,None
tframe0179.jpg,None,None,None
tframe0180.jpg,None,None,None
tframe0181.jpg,None,None,None
tframe0182.jpg,None,None,None
tframe0183.jpg,None,None,None
tframe0184.jpg,None,None,None
tframe0185.jpg,None,None,None
tframe0186.jpg,None,None,None
tframe0187.jpg,None,None,None
tframe0197.jpg,None,None,None
tframe0199.jpg,None,None,None
tframe0200.jpg,None,None,None
tframe0201.jpg,None,None,None
tframe0204.jpg,None,None,None
tframe0205.jpg,None,None,None
tframe0206.jpg,None,None,None
tframe0207.jpg,None,None,None
tframe0208.jpg,None,None,None
tframe0219.jpg,None,None,None
tframe0220.jpg,None,None,None
tframe0221.jpg,None,None,None
tframe0222.jpg,None,None,None
tframe0223.jpg,None,None,None
tframe0224.jpg,None,None,None
tframe0225.jpg,None,None,None
tframe0226.jpg,None,None,None
tframe0227.jpg,None,None,None
tframe0228.jpg,None,None,None
tframe0229.jpg,None,None,None
tframe0230.jpg,None,None,None
tframe0231.jpg,None,None,None
tframe0234.jpg,None,None,None
tframe0235.jpg,None,None,None
tframe0236.jpg,None,None,None
tframe0237.jpg,None,None,None
tframe0238.jpg,None,None,None
tframe0239.jpg,None,None,None
tframe0240.jpg,None,None,None
tframe0241.jpg,None,None,None
tframe0242.jpg,None,None,None
tframe0243.jpg,None,None,None
tframe0244.jpg,None,None,None
tframe0245.jpg,None,None,None
tframe0246.jpg,None,None,None
tframe0247.jpg,None,None,None
tframe0259.jpg,None,None,None
tframe0272.jpg,None,None,None
tframe0273.jpg,None,None,None
tframe0275.jpg,None,None,None
tframe0287.jpg,None,None,None
tframe0302.jpg,None,None,None
tframe0303.jpg,None,None,None
tframe0341.jpg,None,None,None
tframe0342.jpg,None,None,None
tframe0344.jpg,None,None,None
tframe0349.jpg,None,None,None
tframe0350.jpg,None,None,None
tframe0351.jpg,None,None,None
tframe0352.jpg,None,None,None
tframe0353.jpg,None,None,None
tframe0354.jpg,None,None,None
tframe0356.jpg,None,None,None
tframe0357.jpg,None,None,None
tframe0358.jpg,None,None,None
tframe0359.jpg,None,None,None
tframe0360.jpg,None,None,None
tframe0361.jpg,None,None,None
tframe0362.jpg,None,None,None
tframe0363.jpg,None,None,None
tframe0364.jpg,None,None,None
tframe0365.jpg,None,None,None
tframe0366.jpg,None,None,None
tframe0367.jpg,None,None,None
tframe0368.jpg,None,None,None
tframe0369.jpg,None,None,None
tframe0370.jpg,None,None,None
tframe0371.jpg,None,None,None
tframe0372.jpg,None,None,None
tframe0373.jpg,None,None,None
tframe0374.jpg,None,None,None
tframe0375.jpg,None,None,None
tframe0376.jpg,None,None,None
tframe0377.jpg,None,None,None
tframe0378.jpg,None,None,None
tframe0379.jpg,None,None,None
tframe0380.jpg,None,None,None
tframe0381.jpg,None,None,None
tframe0382.jpg,None,None,None
tframe0383.jpg,None,None,None
tframe0384.jpg,None,None,None
tframe0385.jpg,None,None,None
